CalculationMode = gs
FromScratch = yes
Dimensions = 2
ExperimentalFeatures = yes

meff = 1.0
omega = 1.0

%Species
"qd" | species_user_defined | potential_formula | "0.5*meff*omega^2*r^2" | valence | 20
%

%Coordinates
"qd" | 0 | 0 | 0
%

BoxShape = sphere
Radius = 8.0
Spacing = 0.15

SpinComponents = spinors

TheoryLevel = independent_particles

RashbaSpinOrbitCoupling = 0.01
