             Info: Writing states. 2023/06/07 at 14:52:45


        Info: Finished writing states. 2023/06/07 at 14:52:45

Info: SCF converged in   12 iterations

Info: Number of matrix-vector products:       1066
Info: Writing output to static/
Info: Finished writing information to 'restart/gs'.

             Calculation ended on 2023/06/07 at 14:52:45

                          Walltime:  01.168s

Octopus emitted 15 warnings.
