# ----- Calculation mode and parallelization ------------------------------------------------------

 CalculationMode   = td
 RestartWrite = no
 ExperimentalFeatures = yes
 FromScratch = yes

%Systems
  'Maxwell' | maxwell
  'Medium'  | linear_medium
%

 LinearMediumBoxShape = medium_parallelepiped
%LinearMediumBoxSize
  0.0 | 0.0 | 0.0 | 10.1 | 10.1 | 10.1
%
%LinearMediumProperties
 2.0 | 2.0 | 100.0 | 100.0
%
 LinearMediumEdgeProfile = edged

 Maxwell.ParDomains = auto
 Maxwell.ParStates  = no

# ----- Maxwell box variables ---------------------------------------------------------------------

 # free maxwell box limit of 12.0 plus 2.0 for the incident wave boundaries with
 # der_order = 4 times dx_mx

 lsize_mx = 14.0
 dx_mx    = 0.5

 BoxShape   = parallelepiped

 %Lsize
  lsize_mx | lsize_mx | lsize_mx
 %

 %Spacing
  dx_mx | dx_mx | dx_mx
 %


# ----- Maxwell calculation variables -------------------------------------------------------------

 MaxwellHamiltonianOperator = faraday_ampere_medium

 %MaxwellBoundaryConditions
  plane_waves | plane_waves | plane_waves
 %

 %MaxwellAbsorbingBoundaries
  not_absorbing | not_absorbing | not_absorbing
 %


# ----- Output variables --------------------------------------------------------------------------

 OutputFormat = axis_x + axis_y + axis_z


# ----- Maxwell output variables ------------------------------------------------------------------

 %MaxwellOutput
  electric_field
  magnetic_field
  maxwell_energy_density
  trans_electric_field
 %

 MaxwellOutputInterval = 10
 MaxwellTDOutput       = maxwell_energy

 %MaxwellFieldsCoordinate
   0.00 | 0.00 | 0.00
 %


# ----- Time step variables -----------------------------------------------------------------------

 Maxwell.TDSystemPropagator = prop_expmid
 timestep                        = 1 / ( sqrt(c^2/dx_mx^2 + c^2/dx_mx^2 + c^2/dx_mx^2) )
 Maxwell.TDTimeStep              = timestep
 Medium.TDTimeStep               = timestep/2
 TDPropagationTime               = 30*timestep


# ----- Maxwell field variables -------------------------------------------------------------------

 lambda = 10.0
 omega  = 2 * pi * c / lambda
 kx     = omega / c
 Ez     = 1.0
 pw     = 10.0
 p_s     = -20.0

 %MaxwellIncidentWaves
   plane_wave_mx_function | electric_field| 0 | 0 | Ez | "plane_waves_function"
 %

 %MaxwellFunctions
   "plane_waves_function" | mxf_cosinoidal_wave | kx | 0 | 0 | p_s | 0 | 0 | pw
 %

 # cosinoidal pulse
 %UserDefinedInitialMaxwellStates
   use_incident_waves
 %
