CalculationMode = td

FromScratch = yes

Dimensions = 1
PoisonSolver = direct_sum

%Species
 'H2'| species_user_defined | potential_formula | "-2.0/sqrt(x^2+1.0)" | valence | 2
%

Radius = 3.535
Spacing = 0.0707

%Coordinates
 'H2' | 0.0
%

ConvRelDens = 1e-10

TDPropagator = aetrs
TDTimeStep = 0.001
TDMaxSteps = 20
TDDeltaStrength = 0.01/angstrom
TDPolarizationDirection = 1

%TDOutput
 multipoles
 photons_q
%

EnablePhotons = yes
ExperimentalFeatures = yes

resonance = 0.67134269

%PhotonModes
 resonance | 0.0100 | 1
 0.0000001 | 0.0100 | 1
 0.0000020 | 0.0100 | 1
 0.0000300 | 0.0100 | 1
 0.0004000 | 0.0100 | 1
 0.0050000 | 0.0100 | 1
%
