# ----- Calculation mode and parallelization ------------------------------------------------------

 CalculationMode   = td
 RestartWrite = no
 ExperimentalFeatures = yes
 FromScratch =yes
 DisableAccel = yes

%Systems
  'Induced' | maxwell
  'NP' | dispersive_medium
%

%Interactions
 maxwell_e_field | all_partners
 current_to_mxll_field | all_partners
%

 ParDomains = auto
 ParStates  = no

 MediumPoleEnergy = 9.03*ev
 MediumPoleDamping = 0.053*ev
 MediumDispersionType = drude_medium
 %MediumCurrentCoordinates
   -160.0*nm | 0.0 | 0.0
   -80.0*nm | 0.0 | 0.0
%
# ----- Maxwell box variables ---------------------------------------------------------------------

 l_zero = 550*nm     #central wavelength
 lsize_mx = 1.25*l_zero
 lsize_myz = 0.5*l_zero
 S_c = 0.2 ##Courant condition coefficient

 dx_mx    = 20*nm
 BoxShape   = parallelepiped
 NP.BoxShape = box_cgal
 NP.BoxCgalFile = "09-drude-medium-from-file.01-gold-np-r80nm.off"

 %Lsize
  lsize_mx+0.25*l_zero | lsize_myz+0.25*l_zero | lsize_myz+0.25*l_zero
 %

 %Spacing
  dx_mx | dx_mx | dx_mx
 %


# ----- Maxwell calculation variables -------------------------------------------------------------

 MaxwellHamiltonianOperator = faraday_ampere

 %Induced.MaxwellBoundaryConditions
  zero | zero | zero
 %

 %Induced.MaxwellAbsorbingBoundaries
  cpml | cpml | cpml
 %

 Induced.MaxwellABWidth                 = 0.25*l_zero
 Induced.MaxwellABPMLPower              = 3.0
 Induced.MaxwellABPMLReflectionError    = 1e-16


# ----- Time step variables -----------------------------------------------------------------------

 Induced.TDSystemPropagator = prop_expmid
 NP.TDSystemPropagator = prop_rk4
 timestep                = S_c*dx_mx/c
 TDTimeStep              = timestep
 TDPropagationTime       = 30*timestep


# ----- Maxwell field variables -------------------------------------------------------------------

 lambda = l_zero
 omega  = 2 * pi * c / lambda
 Ez    = 1.0

AnalyticalExternalSource = yes
%ExternalSource.MaxwellIncidentWaves
 plane_wave_mx_function | electric_field | 0 | 0 | Ez | "sin2"
%

T1 = 2*pi/omega
R1 = -T1*c
%MaxwellFunctions
  "sin2" | mxf_from_expr | omega/c | 0 | 0 | "sin(pi*z/R1)^2*step(z-R1)*step(-z)"
%
