# DFT Part of this calculation and related details can be found in
# testsuite/finite_systems_3d/01-carbon_atom.01-psf_l0.inp

CalculationMode = td
FromScratch = yes
#UnitsOutput = ev_angstrom
ExperimentalFeatures = yes

%Systems
 "C" | electronic
%

%Coordinates
"C" | 0.5 | 0.5 | 0
%

MaxwellCouplingMode = length_gauge_dipole
MaxwellDipoleField = center_of_mass
spacing = 0.2*angstrom
#radius = 5.0*angstrom
InteractionTiming = timing_retarded

BoxShape = parallelepiped
%Lsize
 3.0*angstrom | 3.0*angstrom | 3.0*angstrom
%

omega = 12.0 # Ha
ampl = 0.5
theta = 0.087 # approximately 5 degrees

C.TDTimeStep = 0.01
TDPropagationTime = 0.2
TDSystemPropagator = prop_aetrs


%TDOutput
 maxwell_field
%
AnalyticalExternalSource = yes
%ExternalSource.MaxwellIncidentWaves
 bessel_function | electric_field | ampl*3.75*c | 2 | omega | 1 | theta 
%

%ExternalSourceBesselOutput
  0.5 | 0.5 | 0.0
%


ForceComplex = yes
LCAOComplexYlms = yes
SpinComponents = polarized

ExtraStates = 2
%Occupations
 2/3 | 2/3 | 2/3
 0 | 0 | 0
%

XCFunctional = lda_x + lda_c_pz

ConvRelDens = 4e-6

PoissonSolver = fft
PoissonFFTKernel = multipole_correction

FilterPotentials = filter_none

MixField = density
