CalculationMode = td
ExperimentalFeatures = yes
FromScratch = yes

Dimensions = 3

%Systems
 "Sun"   | classical_particle
 "Earth" | classical_particle
%

%Interactions
 gravity | all_partners
%

#Initial conditions are taken from https://ssd.jpl.nasa.gov/horizons.cgi#top.
# initial condition at time:
# 2458938.500000000 = A.D. 2020-Mar-30 00:00:00.0000 TDB

Earth.ParticleMass = 5.97237e24
%Earth.ParticleInitialPosition
 -147364661998.16476+0.01 | -24608859261.610123+0.01 | 1665165.2801353487+0.01
%
%Earth.ParticleInitialVelocity
 4431.136612956525 | -29497.611635546345 | 0.343475566161544
%
Earth.TDSystemPropagator = verlet

Sun.ParticleMass = 1.98855e30
# move away from origin because we divide by the position
%Sun.ParticleInitialPosition
 0.0+0.01 | 0.0+0.01 | 0.0+0.01
%
%Sun.ParticleInitialVelocity
 0.0 | 0.0 | 0.0
%
Sun.TDSystemPropagator = exp_mid_2step

sampling = 24 # Time-steps per day
days = 3
seconds_per_day = 24*3600
Earth.TDTimeStep = seconds_per_day/sampling/2
Sun.TDTimeStep = seconds_per_day/sampling
TDPropagationTime = days*seconds_per_day
