CalculationMode = go
GOMethod = simplex
ExperimentalFeatures = yes

dist = 3.0

%Coordinates
'Na'  | 0 | 0 | -dist
'Na'  | 0 | 0 |  dist
%

Spacing = 0.56692
Radius = 13.2280

FromScratch = yes
GOCenter = yes
GOMaxIter = 4

FilterPotentials = filter_none

MixField = density

# Fix the Poisson solver to avoid GPU-CPU discrepancy
PoissonSolver = isf

