CalculationMode = gs
FromScratch = yes

Radius  = 6
Spacing = 0.4

PseudopotentialSet = hgh_lda

%Coordinates
  "H" | 0 | 0 | 0
%

SpinComponents = non_collinear
RelativisticCorrection = spin_orbit

ConvRelDens = 1e-7

Eigensolver = chebyshev_filter
ExtraStates = 4

%StaticMagneticField 
 0.01 | 0. | 0
%
GuessMagnetDensity = user_defined
%AtomsMagnetDirection
 1.0 | 0.0 | 0.0
%

SCFCalculateForces = no

XCFunctional = gga_x_pbe + gga_c_pbe

#To avoid CPU-GPU discrepency
PoissonSolver = isf
