Some of the states are not fully converged!
Criterion =      0.100000E-06

Eigenvalues [H]
 #st  Spin   Eigenvalue      Occupation     Error
   1   --     0.500000       2.000000      ( 9.8E-08)
   2   --     1.500000       0.000000      ( 1.6E-07)
   3   --     2.500000       0.000000      ( 9.7E-08)
   4   --     3.500000       0.000000      ( 9.0E-08)
   5   --     4.500000       0.000000      ( 1.1E-06)
   6   --     5.500000       0.000000      ( 5.3E-07)
   7   --     6.500000       0.000000      ( 9.5E-08)
   8   --     7.500000       0.000000      ( 9.5E-08)
   9   --     8.499999       0.000000      ( 5.4E-07)
  10   --     9.499999       0.000000      ( 9.5E-08)
  11   --    10.499998       0.000000      ( 7.9E-08)
