CalculationMode = gs

PeriodicDimensions = 3

BoxShape = parallelepiped

ExperimentalFeatures = yes

ExtraStates = 6

Eigensolver = chebyshev_filter
ChebyshevFilterDegree = 20

MixingPreconditioner = yes

MaximumIter = 300

a = 7.8809

%Species
"Ni" | species_pseudo | hubbard_l | 2 | hubbard_u | 7.0/27.21138
%
DFTULevel = dft_u_acbn0

PseudopotentialSet=hgh_lda

%LatticeParameters
  a | a | a
%

%LatticeVectors
 0.0 | 1/2 | 1/2
 1/2 | 0.0 | 1/2
 1.0 | 1.0 | 0.0
%

%ReducedCoordinates
 "Ni" | 0.0 | 0.0 | 0.0
 "Ni" | 0.0 | 0.0 | 0.5
 "O"  | 0.5 | 0.5 | 0.25
 "O"  | 0.5 | 0.5 | 0.75
%

Spacing = 0.43

FromScratch = no

SpinComponents = spinors

%KPointsGrid
2 | 2 | 1
%
KPointsUseSymmetries = yes
KPointsUseTimeReversal = no

AOTruncation = ao_box
%Output
  occ_matrices
%
