CalculationMode = gs

PseudopotentialSet = hgh_lda 

%Coordinates
'Be'  | -1.4646408*angstrom | 0 | 0 
'Be'  |  1.4646408*angstrom | 0 | 0
%

FromScratch = yes

Spacing = 0.32*angstrom
Radius = 6.0*angstrom

ConvRelDens = 1e-8
EigensolverTolerance = 1e-9

FilterPotentials = filter_none

PoissonSolver = isf

SICCorrection = sic_adsic
