CalculationMode = gs

XYZCoordinates = "10-vdw_d3_dna.xyz"

PeriodicDimensions = 3

%LatticeParameters
 8.0 * angstrom | 8.0 * angstrom | 15.0 * angstrom
 90 | 90 | 90
%

BoxShape = parallelepiped

Spacing = 0.65

EigenSolver = rmmdiis

TotalStates = 118

VDWCorrection = vdw_d3

# Using this parametrization for an actual calculation does not make
# sense. We do it here to compare with reference results.
VDWD3Functional = 'dftb3'

ExperimentalFeatures = yes
