FromScratch=yes
CalculationMode = gs
PeriodicDimensions = 3
ExperimentalFeatures = yes
BoxShape = parallelepiped
%LatticeParameters
 8.0000000000E+00 | 8.0000000000E+00 | 9.0000000000E+00
%
%LatticeVectors
 1.0000000000E+00 | 0.0000000000E+00 | 0.0000000000E+00
 -5.0000000000E-01 | 8.6602540378E-01 | 0.0000000000E+00
 6.1232339957E-17 | 1.0605752387E-16 | 1.0000000000E+00
%
Spacing = 0.55
FilterPotentials = filter_none
ExtraStates = 2

ConvRelDens = 1e-8
EigensolverTolerance = 1e-9

Smearing = 0.1*eV
SmearingFunction = fermi_dirac

XCFunctional = gga_x_pbe + gga_c_pbe

%KpointsGrid
 4 | 4 | 4
%
KPointsUseSymmetries = no
%ReducedCoordinates
"Na" | 1.7000000000E-01 | 1.5000000000E-01 | 1.1000000000E-01
"Na" | 9.8000000000E-01 | 8.3000000000E-01 | 1.1000000000E-01
"Na" | 8.5000000000E-01 | 2.0000000000E-02 | 1.1000000000E-01
%

%Output
 bader   | axis_x
 density | axis_x
 current_kpt | plane_x
%

SCFCalculatePartialCharges = yes
