                E [eV]         <x> [A]         <y> [A]         <z> [A]             <f>
     1  9.27873948E+00 -8.66322347E-02  1.35464366E-01  3.03039382E-01  9.55386826E-02
     2  9.27873949E+00 -3.49255464E-02  3.07731812E-01 -1.47546412E-01  9.55386827E-02
     3  9.27873949E+00  3.30096452E-01  6.81112516E-02  6.39202247E-02  9.55386826E-02
     4  1.02487547E+01 -1.27468620E-08  2.59206471E-08  9.84932815E-09  8.35122117E-16
     5  1.02487547E+01 -1.86301991E-08 -2.33796142E-08  7.03750262E-08  5.24216450E-15
     6  1.02654344E+01 -2.28909989E-02  9.72392687E-02 -2.97086972E-02  9.75542455E-03
     7  1.02654344E+01 -4.30296098E-02  1.83261159E-02  9.31379991E-02  9.75542530E-03
     8  1.02654344E+01 -9.21223933E-02 -3.27224414E-02 -3.61218430E-02  9.75542560E-03
